{ 
    "data" : [
        {
            "@id": "http://localhost:8080/testing",
            "@type":"Person",
            "name": "testing person",
            "inbox" : "http://localhost:8080/testing/inbox",
            "outbox" : "http://localhost:8080/testing/outbox",
            "following" : "http://localhost:8080/testing/following",
            "followers" : "http://localhost:8080/testing/followers"
        },

        {
            "@id": "http://localhost:8080/person2",
            "@type":"Person",
            "name": "person2 person",
            "inbox" : "http://localhost:8080/person2/inbox",
            "outbox" : "http://localhost:8080/person2/outbox",
            "following" : "http://localhost:8080/person2/following",
            "followers" : "http://localhost:8080/person2/followers"
        },

        {
            "@id" : "http://localhost:8080/0",
            "@type" : "Create",
            "object" : "http://localhost:8080/1"
        },

        {
            "@id" : "http://localhost:8080/1",
            "@type" : "Note",
            "summary" : { "en" : "User One" },
            "content" : { "en" : "User One Content" }
        },

        {
            "@id" : "http://localhost:8080/2",
            "@type" : "Note",
            "summary" : { "en" : "User Two" },
            "content" : { "en" : "User Two Content" }
        },

        {
            "@id" : "http://localhost:8080/3",
            "@type" : "Create",
            "object" : "http://localhost:8080/4"
        },

        {
            "@id" : "http://localhost:8080/4",
            "@type" : "Note",
            "summary" : { "en" : "User Four" },
            "content" : { "en" : "User Four Content" }
        },

        {
            "@id" : "http://localhost:8080/testing/inbox",
            "@type" : "OrderedCollection",
            "items" : [
                "http://localhost:8080/3"
            ]
        },

        {
            "@id" : "http://localhost:8080/testing/outbox",
            "@type" : "OrderedCollection",
            "items" : [
                "http://localhost:8080/0", "http://localhost:8080/2"
            ]
        },

        {
            "@id" : "http://localhost:8080/testing/following",
            "@type" : "OrderedCollection",
            "items" : [ "http://localhost:8080/person2" ]
        },

        {
            "@id" : "http://localhost:8080/testing/followers",
            "@type" : "OrderedCollection",
            "items" : "http://localhost:8080/person2"
        },

        {
            "@id" : "http://localhost:8080/person2/inbox",
            "@type" : "OrderedCollection",
            "items" : [
                "http://localhost:8080/0", "http://localhost:8080/2"
            ]
        },

        {
            "@id" : "http://localhost:8080/person2/outbox",
            "@type" : "OrderedCollection",
            "items" : []
        },

        {
            "@id" : "http://localhost:8080/person2/following",
            "@type" : "OrderedCollection",
            "items" : [ "http://localhost:8080/testing" ]
        },

        {
            "@id" : "http://localhost:8080/person2/followers",
            "@type" : "OrderedCollection",
            "items" : "http://localhost:8080/testing"
        }
    ]
}

